%YAML 1.1
%TAG !u! tag:unity3d.com,2011:
--- !u!1 &1551621140518727793
GameObject:
  m_ObjectHideFlags: 0
  m_CorrespondingSourceObject: {fileID: 0}
  m_PrefabInstance: {fileID: 0}
  m_PrefabAsset: {fileID: 0}
  serializedVersion: 6
  m_Component:
  - component: {fileID: 1551621140518727789}
  - component: {fileID: 1551621140518727788}
  - component: {fileID: 1551621140518727795}
  - component: {fileID: 1551621140518727794}
  - component: {fileID: 1551621140518727790}
  - component: {fileID: 1551621140518727791}
  - component: {fileID: 201492413}
  m_Layer: 0
  m_Name: CubeMan
  m_TagString: Untagged
  m_Icon: {fileID: 0}
  m_NavMeshLayer: 0
  m_StaticEditorFlags: 0
  m_IsActive: 1
--- !u!4 &1551621140518727789
Transform:
  m_ObjectHideFlags: 0
  m_CorrespondingSourceObject: {fileID: 0}
  m_PrefabInstance: {fileID: 0}
  m_PrefabAsset: {fileID: 0}
  m_GameObject: {fileID: 1551621140518727793}
  m_LocalRotation: {x: 0, y: 0, z: 0, w: 1}
  m_LocalPosition: {x: 0, y: 0.5, z: 0}
  m_LocalScale: {x: 1, y: 1, z: 1}
  m_Children:
  - {fileID: 5832939947530964375}
  m_Father: {fileID: 0}
  m_RootOrder: 0
  m_LocalEulerAnglesHint: {x: 0, y: 0, z: 0}
--- !u!33 &1551621140518727788
MeshFilter:
  m_ObjectHideFlags: 0
  m_CorrespondingSourceObject: {fileID: 0}
  m_PrefabInstance: {fileID: 0}
  m_PrefabAsset: {fileID: 0}
  m_GameObject: {fileID: 1551621140518727793}
  m_Mesh: {fileID: 10202, guid: 0000000000000000e000000000000000, type: 0}
--- !u!23 &1551621140518727795
MeshRenderer:
  m_ObjectHideFlags: 0
  m_CorrespondingSourceObject: {fileID: 0}
  m_PrefabInstance: {fileID: 0}
  m_PrefabAsset: {fileID: 0}
  m_GameObject: {fileID: 1551621140518727793}
  m_Enabled: 0
  m_CastShadows: 1
  m_ReceiveShadows: 1
  m_DynamicOccludee: 1
  m_MotionVectors: 1
  m_LightProbeUsage: 1
  m_ReflectionProbeUsage: 1
  m_RayTracingMode: 2
  m_RenderingLayerMask: 1
  m_RendererPriority: 0
  m_Materials:
  - {fileID: 10303, guid: 0000000000000000f000000000000000, type: 0}
  m_StaticBatchInfo:
    firstSubMesh: 0
    subMeshCount: 0
  m_StaticBatchRoot: {fileID: 0}
  m_ProbeAnchor: {fileID: 0}
  m_LightProbeVolumeOverride: {fileID: 0}
  m_ScaleInLightmap: 1
  m_ReceiveGI: 1
  m_PreserveUVs: 0
  m_IgnoreNormalsForChartDetection: 0
  m_ImportantGI: 0
  m_StitchLightmapSeams: 1
  m_SelectedEditorRenderState: 3
  m_MinimumChartSize: 4
  m_AutoUVMaxDistance: 0.5
  m_AutoUVMaxAngle: 89
  m_LightmapParameters: {fileID: 0}
  m_SortingLayerID: 0
  m_SortingLayer: 0
  m_SortingOrder: 0
  m_AdditionalVertexStreams: {fileID: 0}
--- !u!65 &1551621140518727794
BoxCollider:
  m_ObjectHideFlags: 0
  m_CorrespondingSourceObject: {fileID: 0}
  m_PrefabInstance: {fileID: 0}
  m_PrefabAsset: {fileID: 0}
  m_GameObject: {fileID: 1551621140518727793}
  m_Material: {fileID: 0}
  m_IsTrigger: 0
  m_Enabled: 1
  serializedVersion: 2
  m_Size: {x: 0.4018718, y: 1.8150467, z: 0.37379435}
  m_Center: {x: -0.000000059604645, y: 0.40752333, z: 0.026499793}
--- !u!114 &1551621140518727790
MonoBehaviour:
  m_ObjectHideFlags: 0
  m_CorrespondingSourceObject: {fileID: 0}
  m_PrefabInstance: {fileID: 0}
  m_PrefabAsset: {fileID: 0}
  m_GameObject: {fileID: 1551621140518727793}
  m_Enabled: 1
  m_EditorHideFlags: 0
  m_Script: {fileID: 11500000, guid: 5cbf375b53db1c74bbced23a4d0ed014, type: 3}
  m_Name: 
  m_EditorClassIdentifier: 
  speed: 0
  animator: {fileID: 4501559190662177005}
  cam: {fileID: 0}
  rotationSpeed: 8
  Jump: 0
  ColliderEdgePrefab: {fileID: 9003287479725793592, guid: 9ef69ab43ab1dbf43b85237c71309b7c,
    type: 3}
  BottomSphere: []
  FrontSpheres: []
  GravityMultiplier: 0
  PullMultiplier: 0
--- !u!54 &1551621140518727791
Rigidbody:
  m_ObjectHideFlags: 0
  m_CorrespondingSourceObject: {fileID: 0}
  m_PrefabInstance: {fileID: 0}
  m_PrefabAsset: {fileID: 0}
  m_GameObject: {fileID: 1551621140518727793}
  serializedVersion: 2
  m_Mass: 1
  m_Drag: 0
  m_AngularDrag: 0.05
  m_UseGravity: 1
  m_IsKinematic: 0
  m_Interpolate: 0
  m_Constraints: 112
  m_CollisionDetection: 0
--- !u!114 &201492413
MonoBehaviour:
  m_ObjectHideFlags: 0
  m_CorrespondingSourceObject: {fileID: 0}
  m_PrefabInstance: {fileID: 0}
  m_PrefabAsset: {fileID: 0}
  m_GameObject: {fileID: 1551621140518727793}
  m_Enabled: 1
  m_EditorHideFlags: 0
  m_Script: {fileID: 11500000, guid: e72b663c960a044488792aba9828f360, type: 3}
  m_Name: 
  m_EditorClassIdentifier: 
--- !u!1001 &1551621140632135309
PrefabInstance:
  m_ObjectHideFlags: 0
  serializedVersion: 2
  m_Modification:
    m_TransformParent: {fileID: 1551621140518727789}
    m_Modifications:
    - target: {fileID: -6057140222963153312, guid: 6cc340effd249c540bd0ba03dbdebcd2,
        type: 3}
      propertyPath: m_Controller
      value: 
      objectReference: {fileID: 9100000, guid: 8c650a5c4d4dab24b861cf3efec72c39, type: 2}
    - target: {fileID: -6057140222963153312, guid: 6cc340effd249c540bd0ba03dbdebcd2,
        type: 3}
      propertyPath: m_ApplyRootMotion
      value: 0
      objectReference: {fileID: 0}
    - target: {fileID: -4216859302048453862, guid: 6cc340effd249c540bd0ba03dbdebcd2,
        type: 3}
      propertyPath: m_LocalPosition.x
      value: 0
      objectReference: {fileID: 0}
    - target: {fileID: -4216859302048453862, guid: 6cc340effd249c540bd0ba03dbdebcd2,
        type: 3}
      propertyPath: m_LocalPosition.y
      value: -0.5
      objectReference: {fileID: 0}
    - target: {fileID: -4216859302048453862, guid: 6cc340effd249c540bd0ba03dbdebcd2,
        type: 3}
      propertyPath: m_LocalPosition.z
      value: 0
      objectReference: {fileID: 0}
    - target: {fileID: -4216859302048453862, guid: 6cc340effd249c540bd0ba03dbdebcd2,
        type: 3}
      propertyPath: m_LocalRotation.x
      value: -0
      objectReference: {fileID: 0}
    - target: {fileID: -4216859302048453862, guid: 6cc340effd249c540bd0ba03dbdebcd2,
        type: 3}
      propertyPath: m_LocalRotation.y
      value: -0
      objectReference: {fileID: 0}
    - target: {fileID: -4216859302048453862, guid: 6cc340effd249c540bd0ba03dbdebcd2,
        type: 3}
      propertyPath: m_LocalRotation.z
      value: -0
      objectReference: {fileID: 0}
    - target: {fileID: -4216859302048453862, guid: 6cc340effd249c540bd0ba03dbdebcd2,
        type: 3}
      propertyPath: m_LocalRotation.w
      value: 1
      objectReference: {fileID: 0}
    - target: {fileID: -4216859302048453862, guid: 6cc340effd249c540bd0ba03dbdebcd2,
        type: 3}
      propertyPath: m_RootOrder
      value: 0
      objectReference: {fileID: 0}
    - target: {fileID: -4216859302048453862, guid: 6cc340effd249c540bd0ba03dbdebcd2,
        type: 3}
      propertyPath: m_LocalEulerAnglesHint.x
      value: 0
      objectReference: {fileID: 0}
    - target: {fileID: -4216859302048453862, guid: 6cc340effd249c540bd0ba03dbdebcd2,
        type: 3}
      propertyPath: m_LocalEulerAnglesHint.y
      value: 0
      objectReference: {fileID: 0}
    - target: {fileID: -4216859302048453862, guid: 6cc340effd249c540bd0ba03dbdebcd2,
        type: 3}
      propertyPath: m_LocalEulerAnglesHint.z
      value: 0
      objectReference: {fileID: 0}
    - target: {fileID: -927199367670048503, guid: 6cc340effd249c540bd0ba03dbdebcd2,
        type: 3}
      propertyPath: m_Name
      value: ybot (1)
      objectReference: {fileID: 0}
    - target: {fileID: -927199367670048503, guid: 6cc340effd249c540bd0ba03dbdebcd2,
        type: 3}
      propertyPath: m_TagString
      value: Player
      objectReference: {fileID: 0}
    m_RemovedComponents: []
  m_SourcePrefab: {fileID: 100100000, guid: 6cc340effd249c540bd0ba03dbdebcd2, type: 3}
--- !u!4 &5832939947530964375 stripped
Transform:
  m_CorrespondingSourceObject: {fileID: -4216859302048453862, guid: 6cc340effd249c540bd0ba03dbdebcd2,
    type: 3}
  m_PrefabInstance: {fileID: 1551621140632135309}
  m_PrefabAsset: {fileID: 0}
--- !u!95 &4501559190662177005 stripped
Animator:
  m_CorrespondingSourceObject: {fileID: -6057140222963153312, guid: 6cc340effd249c540bd0ba03dbdebcd2,
    type: 3}
  m_PrefabInstance: {fileID: 1551621140632135309}
  m_PrefabAsset: {fileID: 0}
